^C:\USERS\JAVAJUMPER\SOURCE\REPOS\LAB15\TASK1\TASK1.CPP
C:\USERS\JAVAJUMPER\SOURCE\REPOS\LAB15\TASK1\X64\DEBUG\VC143.PDB
C:\USERS\JAVAJUMPER\SOURCE\REPOS\LAB15\TASK1\X64\DEBUG\VC143.IDB
C:\USERS\JAVAJUMPER\SOURCE\REPOS\LAB15\TASK1\X64\DEBUG\TASK1.OBJ
